{
  "file_generated_by": "FlutterFire CLI",
  "purpose": "FirebaseAppID & ProjectID for this Firebase app in this directory",
  "GOOGLE_APP_ID": "1:297065717393:ios:8b37abf7699a7b08182930",
  "FIREBASE_PROJECT_ID": "foodia-89f7b",
  "GCM_SENDER_ID": "297065717393"
}